 -8.5975728e-003
  1.5846657e-002
 -2.9327546e-002
 -3.9596764e-002
 -4.9921768e-003
  1.5345150e-002
  1.5991463e-002
  2.8236303e-002
 -3.3632814e-002
  3.7420838e-002
 -2.8132726e-002
  5.2502693e-003
 -1.3439508e-002
  3.7074133e-002
 -1.2214661e-002
  2.0823743e-003
 -6.6039571e-003
  1.6176550e-002
 -2.1357409e-002
  9.6595263e-003
 -1.4010283e-002
  2.4124302e-002
  3.9992722e-003
  6.9651172e-003
  1.2622494e-002
  1.1747014e-002
  2.4362701e-002
 -1.6355464e-003
 -3.0637953e-003
  2.4184177e-002
  1.5102413e-002
 -1.1224531e-002
 -2.0693915e-002
  9.2114062e-003
 -1.5559342e-002
 -1.7483459e-002
  9.8924390e-003
 -1.2825000e-002
  1.3728897e-002
 -1.3340331e-002
  1.6165617e-002
  1.7188216e-002
 -2.4730749e-002
 -9.0886328e-003
  5.8220326e-003
 -2.2736211e-002
  2.1311308e-002
 -4.1290694e-005
  1.1896967e-002
 -1.1175011e-002
 -2.4896769e-002
  3.0146332e-002
 -3.8812866e-003
 -5.4569588e-003
  2.0429350e-002
 -1.9160583e-002
 -3.2620523e-004
  1.0086580e-002
  3.9586557e-003
 -1.9208216e-002
  7.8747642e-003
  4.6568991e-002
 -2.0331827e-002
 -2.3362178e-002
 -2.6338644e-002
 -2.2896415e-002
  1.6283128e-002
  8.0110994e-003
 -2.9994079e-002
  1.1953075e-002
 -2.2186986e-002
  8.9117156e-003
 -7.3179872e-003
 -1.3952308e-002
  3.2590522e-003
  5.1767125e-003
  4.7133048e-003
  3.5803897e-005
 -1.1869667e-002
 -3.8878363e-002
  7.1831819e-003
  2.8380606e-002
 -3.1223851e-003
  1.3230644e-002
  7.4588037e-004
  1.1283947e-002
  2.6854555e-002
 -8.2313639e-004
 -1.5077191e-002
 -2.2756386e-002
  1.0155301e-002
 -2.8055993e-002
 -3.9361273e-003
 -1.0684590e-002
 -2.0338503e-003
 -2.2450587e-003
 -2.4930936e-002
  3.4075957e-002
  5.0750443e-003
 -7.6314458e-003
 -1.8610087e-002
  2.7512011e-002
 -1.0939173e-002
  2.3913907e-002
 -3.3406526e-003
  2.5790001e-002
  5.7995072e-002
  3.2030652e-003
 -3.1351764e-002
  1.8327805e-002
 -1.1611370e-002
 -8.2898419e-003
 -5.4667959e-003
 -2.7819350e-002
 -9.3249462e-003
 -1.8254105e-002
 -4.7529384e-003
  9.4681553e-004
  4.4012890e-003
 -2.7961128e-003
 -2.1433056e-002
  1.5786774e-002
 -6.2375811e-003
 -2.4742188e-002
  1.5762723e-002
 -2.2774217e-002
  1.4545256e-002
 -6.0203051e-003
 -3.1164063e-002
 -3.5423025e-003
  6.2683505e-003
  1.9902180e-002
 -3.1794186e-002
 -8.6412963e-003
 -3.8343758e-002
 -1.3957598e-002
 -1.8592559e-002
 -3.1480284e-002
  4.6656767e-002
  5.4831848e-003
 -2.9104669e-003
  8.2546438e-003
  3.0889213e-002
 -6.1732499e-002
  1.4058060e-002
  9.4632816e-003
 -1.6847057e-002
 -2.2460797e-002
 -3.2420260e-002
  1.1497838e-002
  6.9868480e-003
  1.5848017e-002
 -1.2138088e-002
  4.1290982e-002
  1.5446548e-002
  1.3537233e-003
 -1.2634482e-003
  5.6571709e-003
 -2.8797173e-002
  1.4031427e-003
  6.9923241e-003
  1.4594460e-002
 -2.9916151e-002
 -2.0719979e-002
 -1.6927764e-002
  2.2381518e-002
  1.7370907e-002
  7.5431910e-003
 -1.7374686e-002
 -5.3670573e-003
  2.0181690e-002
 -1.3464009e-002
  7.4412080e-003
 -1.0296990e-002
 -9.9909774e-003
 -7.2151378e-003
 -3.2596169e-002
  7.2688015e-003
 -4.1815193e-002
 -1.7515560e-002
 -8.8600872e-003
  8.5668475e-003
  1.5953944e-002
 -2.7113248e-002
  3.1436741e-002
 -1.0408844e-002
  3.8989937e-002
 -2.3020002e-003
 -6.7113570e-003
 -1.1617411e-002
  6.0883453e-004
  3.7440750e-002
 -4.9286473e-003
  2.1868779e-003
  2.0863697e-002
  2.9571780e-002
 -3.7867646e-002
  1.6546930e-002
  3.3947559e-003
 -8.1568320e-003
  3.7020842e-004
 -4.5442418e-003
  1.1272575e-002
  2.0736787e-002
 -5.7967221e-003
  1.9266215e-002
 -6.0057772e-003
 -1.3327281e-002
  7.5011615e-003
 -3.4795510e-002
  2.6163450e-002
 -1.1983131e-002
  8.3335935e-003
  2.6628302e-002
  3.2699509e-003
  3.9542533e-002
  2.7955616e-002
 -3.1016766e-002
  2.6163796e-002
  1.2050152e-002
  2.2785963e-002
 -3.2338711e-003
 -7.7928815e-003
  2.0588620e-002
 -2.8149084e-002
 -1.7565771e-002
 -1.9940022e-002
  6.2270586e-003
 -8.7781681e-003
 -3.1507525e-002
 -2.1222822e-002
 -1.3781650e-002
 -3.6895574e-002
 -5.7189045e-003
  4.8714709e-002
  1.9737018e-002
  4.7998469e-003
 -1.8640527e-003
 -2.7854888e-002
 -1.5003096e-002
  6.6473856e-003
 -1.4670025e-002
 -1.0235279e-002
  3.1185812e-002
 -1.2852476e-002
 -1.0496035e-002
  1.5834237e-004
  7.6036209e-002
  8.5776298e-003
 -2.9187611e-003
  2.8475297e-002
  3.2454218e-002
  5.9979920e-003
 -8.2549810e-003
 -1.2934193e-002
 -2.6941619e-002
 -1.6240160e-002
 -8.2491023e-004
  1.4413638e-002
  2.6581693e-002
  2.9342548e-003
  2.1907480e-002
 -4.2135667e-003
 -1.5478801e-002
  2.5054784e-002
  9.3115927e-003
  5.3732161e-002
 -3.1586579e-002
  2.1420561e-002
  6.5049708e-003
 -2.0118543e-004
  3.7540119e-002
 -7.0311526e-003
  1.2307622e-002
 -3.0514307e-002
 -1.0093497e-002
 -9.8559216e-003
  1.9184138e-002
  1.0832071e-002
  8.1307292e-003
  3.3822144e-003
 -1.1852231e-002
 -2.9011529e-002
  2.4777936e-002
  9.8481293e-003
  3.2663395e-002
 -3.7711899e-002
 -2.6478337e-002
 -1.3240230e-003
  8.4560294e-003
 -1.4089254e-003
 -1.1259069e-002
 -3.3897221e-002
  5.1441309e-003
  4.0117512e-003
 -1.6814270e-002
  1.1605873e-002
 -1.5750194e-002
  6.0211066e-002
 -9.1567276e-004
  1.6825621e-002
  3.7218769e-002
 -3.6302538e-004
  7.6712097e-003
 -3.6397563e-003
 -1.4083773e-002
 -4.2668365e-002
  1.1122827e-002
  1.5604954e-004
 -2.5490180e-002
 -4.7090352e-002
  6.5529415e-004
  5.8498608e-003
  1.9012717e-002
 -3.5030036e-002
  1.1964763e-002
  2.8011095e-002
 -1.2779204e-002
 -1.1231819e-003
  1.7336138e-002
  3.2371997e-002
  2.7595594e-002
  1.9395302e-002
  1.7788492e-002
  3.4669836e-002
  2.8977993e-002
  5.4886264e-003
 -2.3483778e-004
  1.6871701e-002
  3.7149076e-002
 -3.1127218e-002
 -7.8211789e-003
 -1.8190954e-002
 -1.6673832e-002
  1.5524776e-003
 -1.5605875e-002
 -2.6493184e-002
  6.7975058e-003
  3.0127811e-002
 -1.9810022e-002
 -1.1003798e-002
  1.8156170e-003
  8.5381859e-003
  1.0687702e-002
 -4.9594606e-002
  1.6988553e-002
  1.1498184e-002
 -2.1272699e-002
  1.4835088e-003
 -1.8764969e-002
 -1.4901309e-002
  8.7269208e-003
 -3.3637380e-002
 -1.9018596e-002
  1.5794207e-002
 -1.0406601e-002
 -7.0846567e-003
  1.0850302e-003
  2.8371701e-002
 -3.3471470e-002
  1.3684619e-003
  2.2067808e-002
 -3.2897768e-003
 -4.2480387e-003
  1.8950139e-002
  2.9111737e-002
  2.7060611e-002
 -7.7200588e-004
 -3.1177349e-002
 -5.1058192e-002
  1.3903405e-002
 -1.4989041e-002
 -5.0593094e-003
 -3.7531114e-003
  2.6432390e-002
 -1.5711845e-002
  4.1636667e-003
  4.7281320e-003
  4.1479601e-004
 -5.1892661e-003
 -1.2083155e-002
 -1.6492049e-002
  1.0927668e-002
 -1.8043100e-002
  1.1311428e-002
 -1.7321383e-002
 -5.7488558e-003
 -9.4754881e-003
  4.2291035e-002
  4.8456633e-003
  1.3811833e-002
  1.2092753e-002
 -1.6064855e-002
  1.4474009e-002
 -2.0679173e-002
  3.0241784e-003
 -3.4151025e-002
  1.3548350e-002
  7.0235190e-003
 -3.6442997e-002
  2.1586454e-002
 -8.5759760e-003
  2.5562697e-002
 -9.1262011e-003
  4.7100873e-003
  4.7298246e-002
 -1.8710252e-004
  2.0359117e-002
 -1.9716525e-002
 -4.4729831e-002
  1.9411555e-002
 -2.0855728e-002
 -1.9042756e-002
  1.3993804e-002
 -1.0370981e-002
 -1.4877320e-002
 -1.6945444e-002
 -2.7119856e-002
  7.5832308e-003
 -1.7007379e-003
 -1.1042515e-002
  2.4507459e-002
  4.8186196e-002
 -1.2869724e-002
  1.0822345e-002
 -1.9819839e-002
 -2.4370896e-002
 -1.1430344e-002
 -1.2901266e-002
  2.1942206e-002
 -2.7066828e-002
  1.3762827e-002
 -2.4120118e-002
  9.8808925e-004
  4.0535145e-002
  2.3834623e-002
  2.2697208e-002
 -1.6169546e-002
  1.1601757e-002
 -1.1683019e-003
 -7.5410508e-003
 -2.9969247e-002
  1.8571469e-002
 -1.6990947e-002
  3.5129247e-003
 -1.0827643e-002
 -1.4082965e-002
 -1.4144429e-002
  1.7134530e-002
  2.5899245e-002
  3.0383571e-002
 -3.4423489e-002
  2.1523373e-002
 -5.4686873e-003
 -2.5992023e-002
  8.6006758e-003
  8.1896748e-003
  4.1869759e-004
 -3.9912873e-002
 -1.9254899e-002
 -1.3203111e-002
  1.7129733e-002
 -9.7815924e-003
 -9.1833519e-003
  4.3662953e-002
 -2.3678688e-002
  1.5946561e-002
  1.0340812e-002
  2.1889786e-002
  2.2021314e-002
 -1.4829076e-002
  2.2192166e-002
  1.8826190e-002
 -2.1032584e-002
  1.2391308e-002
 -5.3402280e-003
 -2.6083862e-002
  8.8366696e-003
 -5.3007066e-003
 -9.0111104e-003
  1.5416300e-002
  3.1258776e-002
  7.1684667e-003
  2.0539860e-002
 -1.2664434e-002
 -1.5572176e-002
 -3.0158974e-003
  4.8453742e-002
  1.2981306e-002
 -1.5353212e-002
 -4.7808956e-003
  3.8161113e-003
 -1.4576843e-002
 -1.4629809e-002
  3.1435865e-002
 -1.1061187e-002
  5.3047936e-003
  1.2754120e-002
  7.0894428e-003
 -4.3336364e-003
 -3.5134695e-003
  6.5741797e-003
  4.7404546e-003
  2.4787690e-002
  6.3768073e-003
  7.9238525e-003
 -2.6999857e-002
  6.2608197e-003
 -1.1430742e-002
  1.1442496e-002
 -4.0713295e-003
 -4.8187395e-004
 -5.4740377e-003
 -5.0691012e-003
 -7.5978676e-003
  1.4409613e-002
  7.4166263e-003
 -1.7691641e-002
 -1.1660537e-002
 -1.1788655e-002
  1.7140671e-002
  2.0047237e-002
 -1.7097559e-002
  1.3827481e-002
  7.2930944e-003
 -2.4301500e-002
  3.3525294e-004
  1.1672796e-002
  5.5779062e-003
 -9.9926601e-003
 -3.4072311e-003
 -2.1138274e-003
  2.3213720e-002
  1.2014224e-002
  1.2620732e-002
 -1.4860592e-002
  5.7991646e-002
 -2.3026414e-002
  4.1245018e-003
  1.2866620e-002
  2.3536133e-003
  1.4499926e-002
 -2.6266318e-002
 -3.5553156e-002
 -8.8897448e-004
 -2.3256372e-002
  3.8308074e-002
 -7.6376702e-003
  6.6277299e-003
  1.0301074e-002
 -1.6030815e-002
 -1.3326875e-002
  1.8165989e-002
  8.9946290e-003
  3.8399761e-002
  3.3004102e-003
  8.0064923e-003
 -1.7198469e-002
  1.5301400e-002
  9.5233030e-004
  2.4670739e-002
  9.2533657e-003
 -4.8864461e-004
 -1.3835504e-002
  3.6208503e-002
  2.0082936e-003
 -2.8038188e-002
  1.1206067e-002
  1.3955695e-002
 -2.1116152e-002
  2.2331872e-002
  3.6292001e-002
  2.5144802e-002
 -4.2523913e-003
 -1.3535510e-002
  6.8132464e-003
  3.5340761e-003
  1.9834887e-002
 -6.0690004e-003
 -3.5710742e-002
  1.0448422e-002
  1.6946000e-002
 -5.6582686e-003
  5.1523929e-003
  2.1458562e-003
 -3.1237249e-002
 -2.8178068e-002
  9.0631663e-003
  3.9364753e-003
 -1.1959132e-002
  5.5759438e-002
 -2.9310083e-004
 -4.4949618e-002
 -1.3399283e-002
 -4.6250221e-003
  8.9378388e-003
  3.4874477e-003
 -8.0061095e-003
  2.9354878e-002
 -1.7113807e-002
 -1.3802698e-002
  7.9398688e-003
  1.3706897e-002
  3.6032600e-002
 -1.0161606e-002
 -1.4640103e-002
  3.4919553e-003
  1.9811256e-003
 -1.3875327e-003
  4.6492556e-003
 -6.6830789e-003
 -2.2222023e-002
  2.6250695e-002
  3.0749541e-002
 -1.0011331e-002
  8.2438406e-003
  7.0726206e-003
  2.7255894e-004
  1.8065235e-002
 -8.1051860e-003
  1.3738625e-002
 -2.6542180e-003
  2.0535521e-002
  8.3221864e-003
 -7.0851910e-004
  3.6748028e-002
  1.2684510e-003
 -2.3970533e-002
  1.5469374e-002
  3.4963145e-002
 -8.7973417e-003
  1.2645951e-002
 -1.5627606e-002
 -1.4435411e-002
  4.0433998e-005
  2.5419762e-003
  1.8462955e-003
 -2.4925687e-002
 -4.2904080e-002
 -1.5956537e-002
 -1.3851073e-002
 -4.0970038e-003
  2.2845084e-002
 -2.6821414e-002
 -7.3431187e-003
 -7.9122544e-003
 -3.2887760e-002
  4.0396883e-003
 -3.3291711e-003
 -8.2972917e-003
 -8.6053852e-003
 -4.8375889e-002
  1.6005547e-003
  4.7633813e-003
  2.1135333e-002
  3.0564838e-002
  3.7881437e-002
 -5.2809001e-003
  2.3897310e-003
  1.1197550e-002
 -1.4082953e-002
  2.5640863e-002
 -1.8903911e-002
  4.9698879e-003
  2.4897973e-002
  4.7024040e-003
 -4.9504374e-002
 -7.0965130e-003
  7.6537375e-003
 -2.6564480e-002
 -2.3121696e-002
 -2.7794998e-002
 -1.0993011e-003
  1.4894740e-002
 -3.1025319e-003
 -4.9293919e-003
 -2.9875814e-002
  1.1716317e-002
  2.3790376e-003
 -2.0046698e-004
 -2.3352099e-003
 -3.0031279e-002
 -2.9693847e-003
  2.0420871e-002
  1.8092897e-002
 -1.2700520e-002
 -2.4795939e-002
 -4.4126086e-003
 -4.2866759e-002
 -4.3082355e-002
 -8.0045985e-002
 -8.4183453e-002
 -5.8398966e-002
 -8.8566221e-002
 -8.9006874e-002
 -9.4969841e-002
 -1.2189157e-001
 -1.3991501e-001
 -8.4867646e-002
 -7.6326547e-002
 -4.3539075e-002
 -6.6483099e-002
 -2.5254035e-002
  8.9949199e-003
  1.9433514e-002
  8.2750968e-002
  6.8048308e-002
  1.1687127e-001
  8.4358652e-002
  8.9454647e-002
  1.0855005e-001
  1.3700104e-001
  8.4561284e-002
  1.1773415e-001
  9.6585734e-002
  3.7263019e-002
  8.1738096e-002
  1.9994021e-002
 -4.5070916e-003
  5.5335434e-002
  1.7613784e-002
  1.0801162e-002
 -9.2790445e-003
  5.2240386e-002
  4.3157449e-002
 -2.9200498e-002
 -6.3912494e-003
  2.2834897e-002
  2.0363716e-002
 -1.5215280e-002
  3.1031951e-002
 -9.3092970e-004
  7.3344420e-003
 -1.3686838e-002
  3.4145645e-002
  2.9802395e-002
 -1.1556750e-004
 -5.6597607e-003
 -2.7148590e-002
 -1.3522919e-002
  6.8150233e-003
  2.9984301e-002
 -2.3011173e-002
 -3.6114844e-002
  1.0860596e-002
  2.1820772e-002
 -2.1019694e-003
 -1.6279775e-002
  1.3148425e-002
 -1.5039742e-002
 -1.4731372e-002
 -3.6147567e-002
 -3.0179907e-002
 -1.4408078e-002
  3.6956696e-002
  8.0190770e-004
  6.3696325e-003
  2.5516211e-002
  4.7554305e-003
  1.8009451e-002
 -1.2116529e-002
 -5.1417031e-002
  4.2478518e-003
  6.2252793e-003
 -1.7625372e-002
  1.1417109e-002
  3.9917127e-002
  3.0166457e-002
  3.5990699e-003
  1.6445367e-002
  2.8955112e-002
 -3.4782387e-002
 -1.8564773e-002
  3.6111227e-002
  8.9705130e-003
  1.1555051e-002
  2.9729854e-003
  8.5144132e-004
  1.4215700e-002
  2.2365581e-002
  1.2918818e-002
 -2.4245202e-002
  9.0724543e-003
 -5.8627384e-002
 -7.7301096e-003
 -2.3585591e-003
  1.8910928e-002
 -1.0665974e-002
 -2.9052194e-004
  3.9168827e-002
  4.1933770e-002
 -2.6682310e-002
  1.0169352e-002
  1.7310363e-002
  2.5678284e-002
 -9.9303337e-003
  8.8647254e-003
 -4.3789887e-002
  3.4123109e-003
 -2.1883155e-002
 -1.7863226e-002
  2.6454863e-002
 -4.2532887e-004
 -1.4508489e-002
  2.2684068e-002
 -1.7223765e-002
 -2.6295514e-003
 -1.4351859e-002
  4.7321577e-002
  1.9454655e-002
  6.1416613e-002
 -3.1383253e-002
 -1.4951390e-002
 -1.5278699e-002
  1.2397423e-002
 -6.5961328e-003
 -3.5612719e-002
 -7.1141124e-003
  1.5218188e-002
  9.1901408e-003
  2.2108062e-002
 -1.2050780e-002
 -2.4494000e-002
 -3.7952897e-002
 -2.5785994e-002
 -1.3760074e-003
 -1.9412102e-002
 -5.8915306e-003
  2.2310358e-002
  4.5217361e-002
 -1.9801127e-002
 -3.9283913e-003
 -2.5714479e-003
  4.7523089e-002
  9.5671121e-003
  5.3767446e-003
 -3.1987995e-002
  1.4393006e-002
  1.4767997e-002
  3.9939991e-004
  8.2607665e-003
  6.6792288e-003
 -7.6205685e-003
  8.7119220e-003
  1.4120524e-002
  1.8123251e-002
  1.3661103e-002
  1.1584058e-002
 -7.8001026e-003
 -1.4251844e-002
  1.8289596e-002
  2.5736767e-002
 -4.2032711e-003
  1.1336605e-002
  1.3030660e-002
  7.5495619e-003
  1.9695499e-002
  5.4449014e-006
 -1.9628112e-002
  1.2357723e-002
 -1.3278215e-002
 -2.0363861e-002
 -3.5708464e-002
 -3.3260986e-004
  1.8794899e-002
 -1.9856474e-002
  3.3984562e-002
  4.3514133e-003
  1.3012701e-002
  2.2253984e-003
 -1.4200593e-002
 -1.2395672e-003
  3.0650499e-002
  1.7278362e-002
  1.0102914e-002
  1.7755444e-002
  2.8126913e-002
 -1.7146520e-002
  7.6929435e-003
 -1.0146395e-003
 -1.6742130e-002
 -7.1965248e-003
 -2.5666512e-002
 -2.1387192e-002
  5.5723288e-003
  4.2768243e-002
 -4.1966167e-002
  2.4539604e-002
  9.8713145e-003
 -2.3498208e-002
  2.0588068e-003
  6.5373718e-003
 -1.8253310e-002
  8.8521314e-003
  8.1704214e-003
  7.8955265e-003
 -1.3611789e-003
  1.2778518e-002
 -1.3867689e-002
  1.2240936e-002
 -4.0442067e-002
 -2.3494212e-002
  1.9176801e-002
  1.0619133e-002
 -9.7722221e-003
 -3.8934032e-002
  1.1769260e-002
  3.2444273e-002
 -1.5087896e-002
  1.6776587e-002
 -6.4872539e-003
  3.8844646e-003
  3.9535933e-003
 -4.2618619e-002
 -4.7856915e-003
  4.1386587e-002
  1.9968668e-002
 -1.0555200e-002
 -4.4524301e-002
  9.9293807e-003
 -2.2512073e-002
  2.3515011e-002
  6.2950814e-003
 -2.5002114e-002
  1.9598348e-002
  1.5486912e-002
  1.6954302e-003
 -5.7563485e-003
 -2.6019944e-002
  9.2469196e-003
 -1.1542211e-002
  4.3149138e-002
 -2.4044273e-002
 -7.4773840e-003
 -1.7081217e-002
 -1.8546620e-002
  5.4479042e-003
  9.4301473e-003
 -1.3229600e-002
  2.5876321e-003
  9.1066074e-003
 -5.3974042e-003
 -1.0386220e-002
  1.0543365e-002
  2.3050847e-003
 -4.3964469e-002
  3.8716851e-002
 -2.2100554e-002
 -1.1585395e-002
  1.7674239e-002
 -1.4278050e-002
  2.8912513e-002
  2.3763557e-003
 -2.5254876e-002
  2.3931042e-002
 -2.8442144e-002
  1.4014371e-002
 -1.8707388e-002
  1.1559647e-002
  1.7018247e-003
 -5.3602444e-003
 -9.9709779e-003
 -2.4389718e-002
 -2.5983628e-003
  1.0542003e-002
 -2.9025695e-002
 -2.9182577e-002
  1.1725413e-002
  2.9211434e-002
  6.1572558e-003
 -2.0888536e-002
 -2.1032230e-002
  6.6274637e-003
  2.8020618e-002
  1.2794218e-002
  4.3587414e-002
  1.3302433e-002
  1.2178257e-003
 -1.0906118e-002
  5.3332721e-002
  5.8319408e-003
  2.8271213e-003
  2.1471881e-003
  1.3936805e-002
 -2.4222190e-002
  4.1789317e-002
  3.5565015e-002
 -8.5523391e-003
  7.5732139e-003
  6.2551534e-003
 -4.0614063e-002
 -2.0900813e-003
 -2.4567044e-003
 -1.5107978e-002
  2.3925204e-002
  7.4660204e-003
  1.1570275e-002
 -5.0568033e-003
 -7.7729729e-003
  7.6009557e-003
 -1.7780720e-002
 -2.5297868e-002
 -3.1834595e-002
 -2.3513763e-002
  5.5878188e-002
 -2.9324772e-003
 -1.2109635e-002
  8.5656757e-003
  2.4244313e-003
 -1.3742489e-002
  2.6049300e-002
 -1.9221113e-003
  2.2176222e-002
  1.2739802e-002
 -1.1265625e-003
  9.8604634e-003
 -2.1277383e-002
  4.2545449e-003
  1.9504286e-004
  2.2125375e-002
  2.1922870e-002
 -1.0631769e-002
 -4.8467508e-003
  2.9192392e-002
  0.0000000e+000
  0.0000000e+000
  0.0000000e+000
  0.0000000e+000
  0.0000000e+000
  0.0000000e+000
  0.0000000e+000
  0.0000000e+000
  0.0000000e+000
  0.0000000e+000
  0.0000000e+000
  0.0000000e+000
  0.0000000e+000
  0.0000000e+000
  0.0000000e+000
  0.0000000e+000
  0.0000000e+000
  0.0000000e+000
  0.0000000e+000
  0.0000000e+000
  0.0000000e+000
  0.0000000e+000
  0.0000000e+000
  0.0000000e+000
  0.0000000e+000
  0.0000000e+000
  0.0000000e+000
  0.0000000e+000
  0.0000000e+000
  0.0000000e+000
  0.0000000e+000
  0.0000000e+000
  0.0000000e+000
  0.0000000e+000
  0.0000000e+000
  0.0000000e+000
  0.0000000e+000
  0.0000000e+000
  0.0000000e+000
  0.0000000e+000
  0.0000000e+000
  0.0000000e+000
  0.0000000e+000
  0.0000000e+000
  0.0000000e+000
  0.0000000e+000
  0.0000000e+000
  0.0000000e+000
  0.0000000e+000
  0.0000000e+000
  0.0000000e+000
  0.0000000e+000
  0.0000000e+000
  0.0000000e+000
  0.0000000e+000
  0.0000000e+000
  0.0000000e+000
  0.0000000e+000
  0.0000000e+000
  0.0000000e+000
  0.0000000e+000
  0.0000000e+000
  0.0000000e+000
  0.0000000e+000
  0.0000000e+000
  0.0000000e+000
  0.0000000e+000
  0.0000000e+000
  0.0000000e+000
  0.0000000e+000
  0.0000000e+000
  0.0000000e+000
  0.0000000e+000
  0.0000000e+000
  0.0000000e+000
  0.0000000e+000
  0.0000000e+000
  0.0000000e+000
  0.0000000e+000
  0.0000000e+000
  0.0000000e+000
  0.0000000e+000
  0.0000000e+000
  0.0000000e+000
  0.0000000e+000
  0.0000000e+000
  0.0000000e+000
  0.0000000e+000
  0.0000000e+000
  0.0000000e+000
  0.0000000e+000
  0.0000000e+000
  0.0000000e+000
  0.0000000e+000
  0.0000000e+000
  0.0000000e+000
  0.0000000e+000
  0.0000000e+000
  0.0000000e+000
  0.0000000e+000
  0.0000000e+000
  0.0000000e+000
  0.0000000e+000
  0.0000000e+000
  0.0000000e+000
  0.0000000e+000
  0.0000000e+000
  0.0000000e+000
  0.0000000e+000
  0.0000000e+000
  0.0000000e+000
  0.0000000e+000
  0.0000000e+000
  0.0000000e+000
  0.0000000e+000
  0.0000000e+000
  0.0000000e+000
  0.0000000e+000
  0.0000000e+000
  0.0000000e+000
  0.0000000e+000
  0.0000000e+000
  0.0000000e+000
  0.0000000e+000
  0.0000000e+000
  0.0000000e+000
  0.0000000e+000
  0.0000000e+000
  0.0000000e+000
  0.0000000e+000
  0.0000000e+000
  0.0000000e+000
  0.0000000e+000
  0.0000000e+000
  0.0000000e+000
  0.0000000e+000
  0.0000000e+000
  0.0000000e+000
  0.0000000e+000
  0.0000000e+000
  0.0000000e+000
  0.0000000e+000
  0.0000000e+000
  0.0000000e+000
  0.0000000e+000
  0.0000000e+000
  0.0000000e+000
  0.0000000e+000
  0.0000000e+000
  0.0000000e+000
  0.0000000e+000
  0.0000000e+000
  0.0000000e+000
  0.0000000e+000
  0.0000000e+000
  0.0000000e+000
  0.0000000e+000
  0.0000000e+000
  0.0000000e+000
  0.0000000e+000
  0.0000000e+000
  0.0000000e+000
  0.0000000e+000
  0.0000000e+000
  0.0000000e+000
  0.0000000e+000
  0.0000000e+000
  0.0000000e+000
  0.0000000e+000
  0.0000000e+000
  0.0000000e+000
  0.0000000e+000
  0.0000000e+000
  0.0000000e+000
  0.0000000e+000
  0.0000000e+000
  0.0000000e+000
  0.0000000e+000
  0.0000000e+000
  0.0000000e+000
  0.0000000e+000
  0.0000000e+000
  0.0000000e+000
  0.0000000e+000
  0.0000000e+000
  0.0000000e+000
  0.0000000e+000
  0.0000000e+000
  0.0000000e+000
  0.0000000e+000
  0.0000000e+000
  0.0000000e+000
  0.0000000e+000
  0.0000000e+000
  0.0000000e+000
  0.0000000e+000
  0.0000000e+000
  0.0000000e+000
  0.0000000e+000
  0.0000000e+000
  0.0000000e+000
  0.0000000e+000
  0.0000000e+000
  0.0000000e+000
  0.0000000e+000
  0.0000000e+000
  0.0000000e+000
  0.0000000e+000
  0.0000000e+000
  0.0000000e+000
  0.0000000e+000
  0.0000000e+000
  0.0000000e+000
  0.0000000e+000
  0.0000000e+000
  0.0000000e+000
  0.0000000e+000
  0.0000000e+000
  0.0000000e+000
  0.0000000e+000
  0.0000000e+000
  0.0000000e+000
  0.0000000e+000
  0.0000000e+000
  0.0000000e+000
  0.0000000e+000
  0.0000000e+000
  0.0000000e+000
  0.0000000e+000
  0.0000000e+000
  0.0000000e+000
  0.0000000e+000
  0.0000000e+000
  0.0000000e+000
  0.0000000e+000
  0.0000000e+000
  0.0000000e+000
  0.0000000e+000
  0.0000000e+000
  0.0000000e+000
  0.0000000e+000
  0.0000000e+000
  0.0000000e+000
  0.0000000e+000
  0.0000000e+000
  0.0000000e+000
  0.0000000e+000
  0.0000000e+000
  0.0000000e+000
  0.0000000e+000
  0.0000000e+000
  0.0000000e+000
  0.0000000e+000
  0.0000000e+000
  0.0000000e+000
  0.0000000e+000
  0.0000000e+000
  0.0000000e+000
  0.0000000e+000
  0.0000000e+000
  0.0000000e+000
  0.0000000e+000
  0.0000000e+000
  0.0000000e+000
  0.0000000e+000
  0.0000000e+000
  0.0000000e+000
  0.0000000e+000
  0.0000000e+000
  0.0000000e+000
  0.0000000e+000
  0.0000000e+000
  0.0000000e+000
  0.0000000e+000
  0.0000000e+000
  0.0000000e+000
  0.0000000e+000
  0.0000000e+000
  0.0000000e+000
  0.0000000e+000
  0.0000000e+000
  0.0000000e+000
  0.0000000e+000
  0.0000000e+000
  0.0000000e+000
  0.0000000e+000
  0.0000000e+000
  0.0000000e+000
  0.0000000e+000
  0.0000000e+000
  0.0000000e+000
  0.0000000e+000
  0.0000000e+000
  0.0000000e+000
  0.0000000e+000
  0.0000000e+000
  0.0000000e+000
  0.0000000e+000
  0.0000000e+000
  0.0000000e+000
  0.0000000e+000
  0.0000000e+000
  0.0000000e+000
  0.0000000e+000
  0.0000000e+000
  0.0000000e+000
  0.0000000e+000
  0.0000000e+000
  0.0000000e+000
  0.0000000e+000
  0.0000000e+000
  0.0000000e+000
  0.0000000e+000
  0.0000000e+000
  0.0000000e+000
  0.0000000e+000
  0.0000000e+000
  0.0000000e+000
  0.0000000e+000
  0.0000000e+000
  0.0000000e+000
  0.0000000e+000
  0.0000000e+000
  0.0000000e+000
  0.0000000e+000
  0.0000000e+000
  0.0000000e+000
  0.0000000e+000
  0.0000000e+000
  0.0000000e+000
  0.0000000e+000
  0.0000000e+000
  0.0000000e+000
  0.0000000e+000
  0.0000000e+000
  0.0000000e+000
  0.0000000e+000
  0.0000000e+000
  0.0000000e+000
  0.0000000e+000
  0.0000000e+000
  0.0000000e+000
  0.0000000e+000
  0.0000000e+000
  0.0000000e+000
  0.0000000e+000
  0.0000000e+000
  0.0000000e+000
  0.0000000e+000
  0.0000000e+000
  0.0000000e+000
  0.0000000e+000
  0.0000000e+000
  0.0000000e+000
  0.0000000e+000
  0.0000000e+000
  0.0000000e+000
  0.0000000e+000
  0.0000000e+000
  0.0000000e+000
  0.0000000e+000
  0.0000000e+000
  0.0000000e+000
  0.0000000e+000
  0.0000000e+000
  0.0000000e+000
  0.0000000e+000
  0.0000000e+000
  0.0000000e+000
  0.0000000e+000
  0.0000000e+000
  0.0000000e+000
  0.0000000e+000
  0.0000000e+000
  0.0000000e+000
  0.0000000e+000
  0.0000000e+000
  0.0000000e+000
  0.0000000e+000
  0.0000000e+000
  0.0000000e+000
  0.0000000e+000
  0.0000000e+000
  0.0000000e+000
  0.0000000e+000
  0.0000000e+000
  0.0000000e+000
  0.0000000e+000
  0.0000000e+000
  0.0000000e+000
  0.0000000e+000
  0.0000000e+000
  0.0000000e+000
  0.0000000e+000
  0.0000000e+000
  0.0000000e+000
  0.0000000e+000
  0.0000000e+000
  0.0000000e+000
  0.0000000e+000
  0.0000000e+000
  0.0000000e+000
  0.0000000e+000
  0.0000000e+000
  0.0000000e+000
  0.0000000e+000
  0.0000000e+000
  0.0000000e+000
  0.0000000e+000
  0.0000000e+000
  0.0000000e+000
  0.0000000e+000
  0.0000000e+000
  0.0000000e+000
  0.0000000e+000
  0.0000000e+000
  0.0000000e+000
  0.0000000e+000
  0.0000000e+000
  0.0000000e+000
  0.0000000e+000
  0.0000000e+000
  0.0000000e+000
  0.0000000e+000
  0.0000000e+000
  0.0000000e+000
  0.0000000e+000
  0.0000000e+000
  0.0000000e+000
  0.0000000e+000
  0.0000000e+000
  0.0000000e+000
  0.0000000e+000
  0.0000000e+000
  0.0000000e+000
  0.0000000e+000
  0.0000000e+000
  0.0000000e+000
  0.0000000e+000
  0.0000000e+000
  0.0000000e+000
  0.0000000e+000
  0.0000000e+000
  0.0000000e+000
  0.0000000e+000
  0.0000000e+000
  0.0000000e+000
  0.0000000e+000
  0.0000000e+000
  0.0000000e+000
  0.0000000e+000
  0.0000000e+000
  0.0000000e+000
  0.0000000e+000
  0.0000000e+000
  0.0000000e+000
  0.0000000e+000
  0.0000000e+000
  0.0000000e+000
  0.0000000e+000
  0.0000000e+000
  0.0000000e+000
  0.0000000e+000
  0.0000000e+000
  0.0000000e+000
  0.0000000e+000
  0.0000000e+000
  0.0000000e+000
  0.0000000e+000
  0.0000000e+000
  0.0000000e+000
  0.0000000e+000
  0.0000000e+000
  0.0000000e+000
  0.0000000e+000
  0.0000000e+000
  0.0000000e+000
  0.0000000e+000
  0.0000000e+000
  0.0000000e+000
  0.0000000e+000
  0.0000000e+000
  0.0000000e+000
  0.0000000e+000
  0.0000000e+000
  0.0000000e+000
  0.0000000e+000
  0.0000000e+000
  0.0000000e+000
  0.0000000e+000
  0.0000000e+000
  0.0000000e+000
  0.0000000e+000
  0.0000000e+000
  0.0000000e+000
  0.0000000e+000
  0.0000000e+000
  0.0000000e+000
  0.0000000e+000
  0.0000000e+000
  0.0000000e+000
  0.0000000e+000
  0.0000000e+000
  0.0000000e+000
  0.0000000e+000
  0.0000000e+000
  0.0000000e+000
  0.0000000e+000
  0.0000000e+000
  0.0000000e+000
  0.0000000e+000
  0.0000000e+000
  0.0000000e+000
  0.0000000e+000
  0.0000000e+000
  0.0000000e+000
  0.0000000e+000
  0.0000000e+000
  0.0000000e+000
  0.0000000e+000
  0.0000000e+000
  0.0000000e+000
  0.0000000e+000
  0.0000000e+000
  0.0000000e+000
  0.0000000e+000
  0.0000000e+000
  0.0000000e+000
  0.0000000e+000
  0.0000000e+000
  0.0000000e+000
  0.0000000e+000
  0.0000000e+000
  0.0000000e+000
  0.0000000e+000
  0.0000000e+000
  0.0000000e+000
  0.0000000e+000
  0.0000000e+000
  0.0000000e+000
  0.0000000e+000
  0.0000000e+000
  0.0000000e+000
  0.0000000e+000
  0.0000000e+000
  0.0000000e+000
  0.0000000e+000
  0.0000000e+000
  0.0000000e+000
  0.0000000e+000
  0.0000000e+000
  0.0000000e+000
  0.0000000e+000
  0.0000000e+000
  0.0000000e+000
  0.0000000e+000
  0.0000000e+000
  0.0000000e+000
  0.0000000e+000
  0.0000000e+000
  0.0000000e+000
  0.0000000e+000
  0.0000000e+000
  0.0000000e+000
  0.0000000e+000
  0.0000000e+000
  0.0000000e+000
  0.0000000e+000
  0.0000000e+000
  0.0000000e+000
  0.0000000e+000
  0.0000000e+000
  0.0000000e+000
  0.0000000e+000
  0.0000000e+000
  0.0000000e+000
  0.0000000e+000
  0.0000000e+000
  0.0000000e+000
  0.0000000e+000
  0.0000000e+000
  0.0000000e+000
  0.0000000e+000
  0.0000000e+000
  0.0000000e+000
  0.0000000e+000
  0.0000000e+000
  0.0000000e+000
  0.0000000e+000
  0.0000000e+000
  0.0000000e+000
  0.0000000e+000
  0.0000000e+000
  0.0000000e+000
  0.0000000e+000
  0.0000000e+000
  0.0000000e+000
  0.0000000e+000
  0.0000000e+000
  0.0000000e+000
  0.0000000e+000
  0.0000000e+000
  0.0000000e+000
  0.0000000e+000
  0.0000000e+000
  0.0000000e+000
  0.0000000e+000
  0.0000000e+000
  0.0000000e+000
  0.0000000e+000
  0.0000000e+000
  0.0000000e+000
  0.0000000e+000
  0.0000000e+000
  0.0000000e+000
  0.0000000e+000
  0.0000000e+000
  0.0000000e+000
  0.0000000e+000
  0.0000000e+000
  0.0000000e+000
  0.0000000e+000
  0.0000000e+000
  0.0000000e+000
  0.0000000e+000
  0.0000000e+000
  0.0000000e+000
  0.0000000e+000
  0.0000000e+000
  0.0000000e+000
  0.0000000e+000
  0.0000000e+000
  0.0000000e+000
  0.0000000e+000
  0.0000000e+000
  0.0000000e+000
  0.0000000e+000
  0.0000000e+000
  0.0000000e+000
  0.0000000e+000
  0.0000000e+000
  0.0000000e+000
  0.0000000e+000
  0.0000000e+000
  0.0000000e+000
  0.0000000e+000
  0.0000000e+000
  0.0000000e+000
  0.0000000e+000
  0.0000000e+000
  0.0000000e+000
  0.0000000e+000
  0.0000000e+000
  0.0000000e+000
  0.0000000e+000
  0.0000000e+000
  0.0000000e+000
  0.0000000e+000
  0.0000000e+000
  0.0000000e+000
  0.0000000e+000
  0.0000000e+000
  0.0000000e+000
  0.0000000e+000
  0.0000000e+000
  0.0000000e+000
  0.0000000e+000
  0.0000000e+000
  0.0000000e+000
  0.0000000e+000
  0.0000000e+000
  0.0000000e+000
  0.0000000e+000
  0.0000000e+000
  0.0000000e+000
  0.0000000e+000
  0.0000000e+000
  0.0000000e+000
  0.0000000e+000
  0.0000000e+000
  0.0000000e+000
  0.0000000e+000
  0.0000000e+000
  0.0000000e+000
  0.0000000e+000
  0.0000000e+000
  0.0000000e+000
  0.0000000e+000
  0.0000000e+000
  0.0000000e+000
  0.0000000e+000
  0.0000000e+000
  0.0000000e+000
  0.0000000e+000
  0.0000000e+000
  0.0000000e+000
  0.0000000e+000
  0.0000000e+000
  0.0000000e+000
  0.0000000e+000
  0.0000000e+000
  0.0000000e+000
  0.0000000e+000
  0.0000000e+000
  0.0000000e+000
  0.0000000e+000
  0.0000000e+000
  0.0000000e+000
  0.0000000e+000
  0.0000000e+000
  0.0000000e+000
  0.0000000e+000
  0.0000000e+000
  0.0000000e+000
  0.0000000e+000
  0.0000000e+000
  0.0000000e+000
  0.0000000e+000
  0.0000000e+000
  0.0000000e+000
  0.0000000e+000
  0.0000000e+000
  0.0000000e+000
  0.0000000e+000
  0.0000000e+000
  0.0000000e+000
  0.0000000e+000
  0.0000000e+000
  0.0000000e+000
  0.0000000e+000
  0.0000000e+000
  0.0000000e+000
  0.0000000e+000
  0.0000000e+000
  0.0000000e+000
  0.0000000e+000
  0.0000000e+000
  0.0000000e+000
  0.0000000e+000
  0.0000000e+000
  0.0000000e+000
  0.0000000e+000
  0.0000000e+000
  0.0000000e+000
  0.0000000e+000
  0.0000000e+000
  0.0000000e+000
  0.0000000e+000
  0.0000000e+000
  0.0000000e+000
  0.0000000e+000
  0.0000000e+000
  0.0000000e+000
  0.0000000e+000
  0.0000000e+000
  0.0000000e+000
  0.0000000e+000
  0.0000000e+000
  0.0000000e+000
  0.0000000e+000
  0.0000000e+000
  0.0000000e+000
  0.0000000e+000
  0.0000000e+000
  0.0000000e+000
  0.0000000e+000
  0.0000000e+000
  0.0000000e+000
  0.0000000e+000
  0.0000000e+000
  0.0000000e+000
  0.0000000e+000
  0.0000000e+000
  0.0000000e+000
  0.0000000e+000
  0.0000000e+000
  0.0000000e+000
  0.0000000e+000
  0.0000000e+000
  0.0000000e+000
  0.0000000e+000
  0.0000000e+000
  0.0000000e+000
  0.0000000e+000
  0.0000000e+000
  0.0000000e+000
  0.0000000e+000
  0.0000000e+000
  0.0000000e+000
  0.0000000e+000
  0.0000000e+000
  0.0000000e+000
  0.0000000e+000
  0.0000000e+000
  0.0000000e+000
  0.0000000e+000
  0.0000000e+000
  0.0000000e+000
  0.0000000e+000
  0.0000000e+000
  0.0000000e+000
  0.0000000e+000
  0.0000000e+000
  0.0000000e+000
  0.0000000e+000
  0.0000000e+000
  0.0000000e+000
  0.0000000e+000
  0.0000000e+000
  0.0000000e+000
  0.0000000e+000
  0.0000000e+000
  0.0000000e+000
  0.0000000e+000
  0.0000000e+000
  0.0000000e+000
  0.0000000e+000
  0.0000000e+000
  0.0000000e+000
  0.0000000e+000
  0.0000000e+000
  0.0000000e+000
  0.0000000e+000
  0.0000000e+000
  0.0000000e+000
  0.0000000e+000
  0.0000000e+000
  0.0000000e+000
  0.0000000e+000
  0.0000000e+000
  0.0000000e+000
  0.0000000e+000
  0.0000000e+000
  0.0000000e+000
  0.0000000e+000
  0.0000000e+000
  0.0000000e+000
  0.0000000e+000
  0.0000000e+000
  0.0000000e+000
  0.0000000e+000
  0.0000000e+000
  0.0000000e+000
  0.0000000e+000
  0.0000000e+000
  0.0000000e+000
  0.0000000e+000
  0.0000000e+000
  0.0000000e+000
  0.0000000e+000
  0.0000000e+000
  0.0000000e+000
  0.0000000e+000
  0.0000000e+000
  0.0000000e+000
  0.0000000e+000
  0.0000000e+000
  0.0000000e+000
  0.0000000e+000
  0.0000000e+000
  0.0000000e+000
  0.0000000e+000
  0.0000000e+000
  0.0000000e+000
  0.0000000e+000
  0.0000000e+000
  0.0000000e+000
  0.0000000e+000
  0.0000000e+000
  0.0000000e+000
  0.0000000e+000
  0.0000000e+000
  0.0000000e+000
  0.0000000e+000
  0.0000000e+000
  0.0000000e+000
  0.0000000e+000
  0.0000000e+000
  0.0000000e+000
  0.0000000e+000
  0.0000000e+000
  0.0000000e+000
  0.0000000e+000
  0.0000000e+000
  0.0000000e+000
  0.0000000e+000
  0.0000000e+000
  0.0000000e+000
  0.0000000e+000
  0.0000000e+000
  0.0000000e+000
  0.0000000e+000
  0.0000000e+000
  0.0000000e+000
  0.0000000e+000
  0.0000000e+000
  0.0000000e+000
  0.0000000e+000
  0.0000000e+000
  0.0000000e+000
  0.0000000e+000
  0.0000000e+000
  0.0000000e+000
  0.0000000e+000
  0.0000000e+000
  0.0000000e+000
  0.0000000e+000
  0.0000000e+000
  0.0000000e+000
  0.0000000e+000
  0.0000000e+000
  0.0000000e+000
  0.0000000e+000
  0.0000000e+000
  0.0000000e+000
  0.0000000e+000
  0.0000000e+000
  0.0000000e+000
  0.0000000e+000
  0.0000000e+000
  0.0000000e+000
  0.0000000e+000
  0.0000000e+000
  0.0000000e+000
  0.0000000e+000
  0.0000000e+000
  0.0000000e+000
  0.0000000e+000
  0.0000000e+000
  0.0000000e+000
  0.0000000e+000
  0.0000000e+000
  0.0000000e+000
  0.0000000e+000
  0.0000000e+000
  0.0000000e+000
  0.0000000e+000
  0.0000000e+000
  0.0000000e+000
  0.0000000e+000
  0.0000000e+000
  0.0000000e+000
  0.0000000e+000
  0.0000000e+000
  0.0000000e+000
  0.0000000e+000
  0.0000000e+000
  0.0000000e+000
  0.0000000e+000
  0.0000000e+000
  0.0000000e+000
  0.0000000e+000
  0.0000000e+000
  0.0000000e+000
  0.0000000e+000
  0.0000000e+000
  0.0000000e+000
  0.0000000e+000
  0.0000000e+000
  0.0000000e+000
  0.0000000e+000
  0.0000000e+000
  0.0000000e+000
  0.0000000e+000
  0.0000000e+000
  0.0000000e+000
  0.0000000e+000
  0.0000000e+000
  0.0000000e+000
  0.0000000e+000
  0.0000000e+000
  0.0000000e+000
  0.0000000e+000
  0.0000000e+000
  0.0000000e+000
  0.0000000e+000
  0.0000000e+000
  0.0000000e+000
  0.0000000e+000
  0.0000000e+000
  0.0000000e+000
  0.0000000e+000
  0.0000000e+000
  0.0000000e+000
  0.0000000e+000
  0.0000000e+000
  0.0000000e+000
  0.0000000e+000
  0.0000000e+000
  0.0000000e+000
  0.0000000e+000
  0.0000000e+000
  0.0000000e+000
  0.0000000e+000
  0.0000000e+000
  0.0000000e+000
  0.0000000e+000
  0.0000000e+000
  0.0000000e+000
  0.0000000e+000
  0.0000000e+000
  0.0000000e+000
  0.0000000e+000
  0.0000000e+000
  0.0000000e+000
  0.0000000e+000
  0.0000000e+000
  0.0000000e+000
  0.0000000e+000
  0.0000000e+000
  0.0000000e+000
  0.0000000e+000
  0.0000000e+000
  0.0000000e+000
  0.0000000e+000
  0.0000000e+000
  0.0000000e+000
  0.0000000e+000
  0.0000000e+000
  0.0000000e+000
  0.0000000e+000
  0.0000000e+000
  0.0000000e+000
  0.0000000e+000
